<svg xmlns="http://www.w3.org/2000/svg" width="16.696" height="16" viewBox="0 0 16.696 16">
  <path id="iconmonstr-linkedin-1" d="M3.464,2.739A1.725,1.725,0,1,1,1.739,1,1.732,1.732,0,0,1,3.464,2.739Zm.014,3.13H0V17H3.478Zm5.553,0H5.575V17H9.032V11.157c0-3.249,4.194-3.514,4.194,0V17H16.7V9.952c0-5.482-6.207-5.282-7.665-2.584V5.87Z" transform="translate(0 -1)"/>
</svg>
